{
  "name": "FAQ (V2)",
  "tag": "section",
  "class": "product-faq",
  "settings": [
    {
      "type": "checkbox",
      "id": "visible",
      "label": "Show section",
      "default": true
    },
    {
      "type": "header",
      "content": "Spacing"
    },
    {
      "type": "range",
      "id": "ptop",
      "label": "Top spacing desktop",
      "min": 0,
      "unit": "px",
      "max": 500,
      "step": 5,
      "default": 45
    },
    {
      "type": "range",
      "id": "pbottom",
      "label": "Bottom spacing desktop",
      "min": 0,
      "unit": "px",
      "max": 500,
      "step": 5,
      "default": 45
    },
    {
      "type": "range",
      "id": "ptop_mob",
      "label": "Top spacing mobile",
      "min": 0,
      "unit": "px",
      "max": 500,
      "step": 5,
      "default": 45
    },
    {
      "type": "range",
      "id": "pbottom_mob",
      "label": "Bottom spacing mobile",
      "min": 0,
      "unit": "px",
      "max": 500,
      "step": 5,
      "default": 45
    },
    {
      "type": "header",
      "content": "Background"
    },
    {
      "type": "color",
      "id": "sectionbg",
      "label": "Section background color",
      "default": "#ffffff"
    },
    {
      "type": "header",
      "content": "Content"
    },
    {
      "type": "text",
      "id": "title",
      "label": "Title"
    },
    {
      "type": "image_picker",
      "id": "image",
      "label": "Image"
    },
    {
      "type": "header",
      "content": "Button"
    },
    {
      "type": "text",
      "id": "info",
      "label": "Info text"
    },
    {
      "type": "url",
      "id": "btn_link",
      "label": "Button Link"
    },
    {
      "type": "text",
      "id": "btn_label",
      "label": "Button Label"
    }
  ],
  "blocks": [
    {
      "type": "faq",
      "name": "Faq",
      "settings": [
        {
          "type": "text",
          "id": "title",
          "label": "Title"
        },
        {
          "type": "richtext",
          "id": "subtitle",
          "label": "Subtitle"
        },
        {
          "type": "richtext",
          "id": "text",
          "label": "Richtext"
        }
      ]
    }
  ]
}