{
  "name": "Instagram",
  "tag": "section",
  "class": "instagram-section",
  "settings": [
    {
      "type": "checkbox",
      "id": "visible",
      "label": "Show section",
      "default": true
    },
    {
      "type": "header",
      "content": "Spacing"
    },
    {
      "type": "range",
      "id": "ptop",
      "label": "Top spacing desktop",
      "min": 0,
      "unit": "px",
      "max": 500,
      "step": 5,
      "default": 45
    },
    {
      "type": "range",
      "id": "pbottom",
      "label": "Bottom spacing desktop",
      "min": 0,
      "unit": "px",
      "max": 500,
      "step": 5,
      "default": 45
    },
    {
      "type": "range",
      "id": "ptop_mob",
      "label": "Top spacing mobile",
      "min": 0,
      "unit": "px",
      "max": 500,
      "step": 5,
      "default": 45
    },
    {
      "type": "range",
      "id": "pbottom_mob",
      "label": "Bottom spacing mobile",
      "min": 0,
      "unit": "px",
      "max": 500,
      "step": 5,
      "default": 45
    },
    {
      "type": "header",
      "content": "Background"
    },
    {
      "type": "color",
      "id": "sectionbg",
      "label": "Section background color",
      "default": "#ffffff"
    },
    {
      "type": "header",
      "content": "Content"
    },
    {
      "type": "text",
      "id": "title",
      "label": "Title"
    },
    {
      "type": "text",
      "id": "subtitle",
      "label": "Sub title"
    }
  ],
  "blocks": [
    {
      "name": "Block",
      "type": "block",
      "settings": [
        {
          "type": "image_picker",
          "id": "image",
          "label": "Image"
        },
        {
          "type": "text",
          "id": "title",
          "label": "Title"
        },
        {
          "type": "richtext",
          "id": "text",
          "label": "Text"
        }
      ]
    }
  ],
  "presets": [
    {
      "name": "Instagram",
      "category": "custom"
    }
  ]
}