{
  "name": "Product Main",
  "tag": "section",
  "class": "product-main-section",
  "settings": [
    {
      "type": "header",
      "content": "Spacing"
    },
    {
      "type": "range",
      "id": "ptop",
      "label": "Top spacing desktop",
      "min": 0,
      "unit": "px",
      "max": 500,
      "step": 5,
      "default": 45
    },
    {
      "type": "range",
      "id": "pbottom",
      "label": "Bottom spacing desktop",
      "min": 0,
      "unit": "px",
      "max": 500,
      "step": 5,
      "default": 45
    },
    {
      "type": "range",
      "id": "ptop_mob",
      "label": "Top spacing mobile",
      "min": 0,
      "unit": "px",
      "max": 500,
      "step": 5,
      "default": 45
    },
    {
      "type": "range",
      "id": "pbottom_mob",
      "label": "Bottom spacing mobile",
      "min": 0,
      "unit": "px",
      "max": 500,
      "step": 5,
      "default": 45
    },
    {
      "type": "header",
      "content": "Background"
    },
    {
      "type": "color",
      "id": "sectionbg",
      "label": "Section background color",
      "default": "#ffffff"
    },
    {
      "type": "header",
      "content": "Content"
    },
    {
      "type": "header",
      "content": "Upsell"
    },
    {
      "type": "checkbox",
      "id": "enable_upsell",
      "label": "Show Upsell",
      "default": true
    },
    {
      "type": "text",
      "id": "upsell_title",
      "label": "Title",
      "default": "Upsell"
    },
    {
      "type": "richtext",
      "id": "upsell_subtitle",
      "label": "Sub title",
      "default": "<p>Sub title</p>"
    },
    {
      "type": "select",
      "id": "upsell_pos",
      "options": [
        {
          "value": "top",
          "label": "Above add to cart button"
        },
        {
          "value": "bottom",
          "label": "Below add to cart button"
        }
      ],
      "default": "bottom",
      "label": "Position"
    },
    {
      "type": "header",
      "content": "Badge"
    },
    {
      "type": "checkbox",
      "id": "show_icon",
      "label": "Show Badge",
      "default": true
    },
    {
      "type": "html",
      "id": "icon",
      "label": "Badge"
    },
    {
      "type": "text",
      "id": "compare_price",
      "label": "Compare Price"
    },
    {
      "type": "text",
      "id": "info",
      "label": "Info"
    },
    {
      "type": "text",
      "id": "feature",
      "label": "Feature"
    },
    {
      "type": "text",
      "id": "plan_type",
      "label": "Plan type"
    },
    {
      "type": "text",
      "id": "plan_type_mob",
      "label": "Plan type (Mobile)"
    },
    {
      "type": "checkbox",
      "id": "price_cross_out",
      "label": "Cross out the main price?"
    },
    {
      "type": "checkbox",
      "id": "d_mode",
      "label": "Inline",
      "default": true
    },
    {
      "type": "header",
      "content": "Whistle Plan"
    },
    {
      "type": "text",
      "id": "plan_title",
      "label": "Title"
    },
    {
      "type": "richtext",
      "id": "plan_text",
      "label": "Content"
    },
    {
      "type": "checkbox",
      "id": "is_plan_list",
      "label": "Make content list ?"
    },
    {
      "type": "header",
      "content": "Protection Plan"
    },
    {
      "type": "text",
      "id": "prot_desc_title",
      "label": "Title",
      "default": "Add product protection:"
    },
    {
      "type": "richtext",
      "id": "prot_desc_text",
      "label": "Description",
      "default": "<p>Get up to 1 year of accidental damage protection and expert technical support from Whistle.</p>"
    },
    {
      "type": "text",
      "id": "prot_btn_label",
      "label": "Button Label",
      "default": "Choose your protection plan:"
    },
    {
      "type": "header",
      "content": "Pricing Options"
    },
    {
      "type": "text",
      "id": "pricing_option_title",
      "label": "Title",
      "default": "Pricing Options:"
    },
    {
      "type": "paragraph",
      "content": "Full retail"
    },
    {
      "type": "text",
      "id": "p_opt_title1",
      "label": "Title",
      "default": "Full retail price"
    },
    {
      "type": "richtext",
      "id": "p_opt_subtitle1",
      "label": "Subtitle",
      "default": "<p>With monthly subscription plan</p>"
    },
    {
      "type": "paragraph",
      "content": "Subscription"
    },
    {
      "type": "text",
      "id": "p_opt_title2",
      "label": "Title",
      "default": "With 1 or 2 year subscription plan"
    },
    {
      "type": "richtext",
      "id": "p_opt_subtitle2",
      "label": "Subtitle",
      "default": "<p>$20 OFF</p>"
    },
    {
      "type": "text",
      "id": "discount_price",
      "label": "Discount Price ($)",
      "default": "20"
    },
    {
      "type": "header",
      "content": "Plan Options"
    },
    {
      "type": "text",
      "id": "plan_option_title",
      "label": "Title",
      "default": "Choose your plan options:"
    },
    {
      "type": "richtext",
      "id": "plan_option_subtitle",
      "label": "Subtitle"
    },
    {
      "type": "paragraph",
      "content": "Monthly"
    },
    {
      "type": "text",
      "id": "plan_opt_title1",
      "label": "Title",
      "default": "Monthly"
    },
    {
      "type": "product",
      "id": "plan_opt_product1",
      "label": "Product"
    },
    {
      "type": "richtext",
      "id": "plan_opt_subtitle1",
      "label": "Subtitle"
    },
    {
      "type": "paragraph",
      "content": "1 Year Plan"
    },
    {
      "type": "text",
      "id": "plan_opt_title2",
      "label": "Title",
      "default": "1-Year PLAN"
    },
    {
      "type": "product",
      "id": "plan_opt_product2",
      "label": "Product"
    },
    {
      "type": "richtext",
      "id": "plan_opt_subtitle2",
      "label": "Subtitle"
    },
    {
      "type": "text",
      "id": "plan_opt_badge2",
      "label": "Badge"
    },
    {
      "type": "paragraph",
      "content": "2 Year Plan"
    },
    {
      "type": "text",
      "id": "plan_opt_title3",
      "label": "Title",
      "default": "2-Year PLAN"
    },
    {
      "type": "product",
      "id": "plan_opt_product3",
      "label": "Product"
    },
    {
      "type": "richtext",
      "id": "plan_opt_subtitle3",
      "label": "Subtitle"
    },
    {
      "type": "text",
      "id": "plan_opt_badge3",
      "label": "Badge"
    }
  ],
  "blocks": [
    {
      "type": "block",
      "name": "Feature",
      "limit": 3,
      "settings": [
        {
          "type": "text",
          "id": "title",
          "label": "Title"
        },
        {
          "type": "richtext",
          "id": "text",
          "label": "Text"
        },
        {
          "type": "checkbox",
          "id": "is_list",
          "label": "Make the content list ?"
        }
      ]
    }
  ]
}